netcdf toga_chikira {
dimensions:
	time = 5 ;
	lev = 38 ;
	lat = 1 ;
	lon = 1 ;
variables:
	float Q2(time, lev, lat, lon) ;
		Q2:_FillValue = -2.7775f ;
		Q2:missing_value = -2.7775f ;
		Q2:units = "K/s" ;
		Q2:long_name = "Q2" ;
	float lev(lev) ;
		lev:long_name = "Pressure Levels" ;
		lev:units = "Pa" ;
	float lat(lat) ;
		lat:long_name = "Latitude" ;
		lat:units = "degrees_north" ;
	float lon(lon) ;
		lon:long_name = "Longitude" ;
		lon:units = "degrees_east" ;
	float Q1(time, lev, lat, lon) ;
		Q1:_FillValue = -2.7775f ;
		Q1:missing_value = -2.7775f ;
		Q1:units = "K/s" ;
		Q1:long_name = "Q1" ;
	float Dq_dt(time, lev, lat, lon) ;
		Dq_dt:_FillValue = -0.0027775f ;
		Dq_dt:missing_value = -0.0027775f ;
		Dq_dt:units = "kg/kg/s" ;
		Dq_dt:long_name = "Dq/dt" ;
	float DT_dt(time, lev, lat, lon) ;
		DT_dt:_FillValue = -2.7775f ;
		DT_dt:missing_value = -2.7775f ;
		DT_dt:units = "K/s" ;
		DT_dt:long_name = "DT/dt" ;
	float ds_dt(time, lev, lat, lon) ;
		ds_dt:_FillValue = -2.7775f ;
		ds_dt:missing_value = -2.7775f ;
		ds_dt:units = "K/s" ;
		ds_dt:long_name = "ds/dt" ;
	float vertdivs(time, lev, lat, lon) ;
		vertdivs:_FillValue = -2.7775f ;
		vertdivs:missing_value = -2.7775f ;
		vertdivs:units = "K/s" ;
		vertdivs:long_name = "Vertical_s_Advec" ;
	float divs(time, lev, lat, lon) ;
		divs:_FillValue = -2.7775f ;
		divs:missing_value = -2.7775f ;
		divs:units = "K/s" ;
		divs:long_name = "Horizontal_s_Advec" ;
	float s(time, lev, lat, lon) ;
		s:_FillValue = -9999.f ;
		s:missing_value = -9999.f ;
		s:units = "K" ;
		s:long_name = "Dry_Static_Energy" ;
	float vertdivq(time, lev, lat, lon) ;
		vertdivq:_FillValue = -0.0027775f ;
		vertdivq:missing_value = -0.0027775f ;
		vertdivq:units = "kg/kg/s" ;
		vertdivq:long_name = "Vertical Q Advective Tendency" ;
	float divq(time, lev, lat, lon) ;
		divq:_FillValue = -0.0027775f ;
		divq:missing_value = -0.0027775f ;
		divq:units = "kg/kg/s" ;
		divq:long_name = "Horizontal Q Advective Tendency" ;
	float vertdivT(time, lev, lat, lon) ;
		vertdivT:_FillValue = -2.7775f ;
		vertdivT:missing_value = -2.7775f ;
		vertdivT:units = "K/s" ;
		vertdivT:long_name = "Vertical T Advective Tendency" ;
	float divT(time, lev, lat, lon) ;
		divT:_FillValue = -2.7775f ;
		divT:missing_value = -2.7775f ;
		divT:units = "K/s" ;
		divT:long_name = "Horizontal T Advective Tendency" ;
	float WD(time, lev, lat, lon) ;
		WD:_FillValue = -9999.f ;
		WD:missing_value = -9999.f ;
		WD:units = "s-1" ;
		WD:long_name = "Wind_Div" ;
	float omega(time, lev, lat, lon) ;
		omega:_FillValue = -277.75f ;
		omega:missing_value = -277.75f ;
		omega:units = "Pa/s" ;
		omega:long_name = "Vertical Pressure Velocity" ;
	float v(time, lev, lat, lon) ;
		v:_FillValue = -9999.f ;
		v:missing_value = -9999.f ;
		v:units = "m/s" ;
		v:long_name = "V Windspeed" ;
	float u(time, lev, lat, lon) ;
		u:_FillValue = -9999.f ;
		u:missing_value = -9999.f ;
		u:units = "m/s" ;
		u:long_name = "U Windspeed" ;
	float q(time, lev, lat, lon) ;
		q:_FillValue = -9.999001f ;
		q:missing_value = -9.999001f ;
		q:units = "kg/kg" ;
		q:long_name = "W.V. Mixing Ratio" ;
	float T(time, lev, lat, lon) ;
		T:_FillValue = -9999.f ;
		T:missing_value = -9999.f ;
		T:units = "K" ;
		T:long_name = "Temperature" ;
	float Prec_diag(time, lat, lon) ;
		Prec_diag:_FillValue = -9999.f ;
		Prec_diag:missing_value = -9999.f ;
		Prec_diag:units = "mm/hour" ;
		Prec_diag:long_name = "Diagnosed Precipitation" ;
	float colLH(time, lat, lon) ;
		colLH:_FillValue = -9999.f ;
		colLH:missing_value = -9999.f ;
		colLH:units = "W/m2" ;
		colLH:long_name = "Column Latent Heating" ;
	float colRH(time, lat, lon) ;
		colRH:_FillValue = -9999.f ;
		colRH:missing_value = -9999.f ;
		colRH:units = "W/m2" ;
		colRH:long_name = "Column Radiative Heating" ;
	float dcolDSEAdt(time, lat, lon) ;
		dcolDSEAdt:_FillValue = -9999.f ;
		dcolDSEAdt:missing_value = -9999.f ;
		dcolDSEAdt:units = "W/m2" ;
		dcolDSEAdt:long_name = "Column Dry Static Energy Advection" ;
	float dcolDSEdt(time, lat, lon) ;
		dcolDSEdt:_FillValue = -9999.f ;
		dcolDSEdt:missing_value = -9999.f ;
		dcolDSEdt:units = "W/m2" ;
		dcolDSEdt:long_name = "dColumn Dry Static Energy_dt" ;
	float evapsrf(time, lat, lon) ;
		evapsrf:_FillValue = -0.0027775f ;
		evapsrf:missing_value = -0.0027775f ;
		evapsrf:units = "m/s" ;
		evapsrf:long_name = "Srf Evaporation" ;
	float colH20Adv(time, lat, lon) ;
		colH20Adv:_FillValue = -0.0027775f ;
		colH20Adv:missing_value = -0.0027775f ;
		colH20Adv:units = "m/s" ;
		colH20Adv:long_name = "Column H2O Advection" ;
	float dcolH2Odt(time, lat, lon) ;
		dcolH2Odt:_FillValue = -0.0027775f ;
		dcolH2Odt:missing_value = -0.0027775f ;
		dcolH2Odt:units = "m/s" ;
		dcolH2Odt:long_name = "dColumn H2O_ dt" ;
	float TOA_LWup(time, lat, lon) ;
		TOA_LWup:_FillValue = -9999.f ;
		TOA_LWup:missing_value = -9999.f ;
		TOA_LWup:units = "W/m2" ;
		TOA_LWup:long_name = "TOA LW Up" ;
	float TOA_SWup(time, lat, lon) ;
		TOA_SWup:_FillValue = -9999.f ;
		TOA_SWup:missing_value = -9999.f ;
		TOA_SWup:units = "W/m2" ;
		TOA_SWup:long_name = "TOA SW up" ;
	float TOA_SWdn(time, lat, lon) ;
		TOA_SWdn:_FillValue = -9999.f ;
		TOA_SWdn:missing_value = -9999.f ;
		TOA_SWdn:units = "W/m2" ;
		TOA_SWdn:long_name = "TOA SW dn" ;
	float SFC_SWup(time, lat, lon) ;
		SFC_SWup:_FillValue = -9999.f ;
		SFC_SWup:missing_value = -9999.f ;
		SFC_SWup:units = "W/m2" ;
		SFC_SWup:long_name = "Srf SW Up Rad" ;
	float SFC_SWdn(time, lat, lon) ;
		SFC_SWdn:_FillValue = -9999.f ;
		SFC_SWdn:missing_value = -9999.f ;
		SFC_SWdn:units = "W/m2" ;
		SFC_SWdn:long_name = "Srf SW Dn Rad" ;
	float SFC_LWup(time, lat, lon) ;
		SFC_LWup:_FillValue = -9999.f ;
		SFC_LWup:missing_value = -9999.f ;
		SFC_LWup:units = "W/m2" ;
		SFC_LWup:long_name = "Srf LW Up Rad" ;
	float SFC_LWdn(time, lat, lon) ;
		SFC_LWdn:_FillValue = -9999.f ;
		SFC_LWdn:missing_value = -9999.f ;
		SFC_LWdn:units = "W/m2" ;
		SFC_LWdn:long_name = "Srf LW Dn Rad" ;
	float vsrf(time, lat, lon) ;
		vsrf:_FillValue = -9999.f ;
		vsrf:missing_value = -9999.f ;
		vsrf:units = "m/s" ;
		vsrf:long_name = "Srf V Wind" ;
	float usrf(time, lat, lon) ;
		usrf:_FillValue = -9999.f ;
		usrf:missing_value = -9999.f ;
		usrf:units = "m/s" ;
		usrf:long_name = "Srf U Wind" ;
	float windsrf(time, lat, lon) ;
		windsrf:_FillValue = -9999.f ;
		windsrf:missing_value = -9999.f ;
		windsrf:units = "m/s" ;
		windsrf:long_name = "Srf Wind Speed" ;
	float qg(time, lat, lon) ;
		qg:_FillValue = -9999.f ;
		qg:missing_value = -9999.f ;
		qg:units = "%" ;
		qg:long_name = "Sfc Air q" ;
	float Tg(time, lat, lon) ;
		Tg:_FillValue = -9725.85f ;
		Tg:missing_value = -9725.85f ;
		Tg:units = "K" ;
		Tg:long_name = "Tg Soil" ;
	float Tsair(time, lat, lon) ;
		Tsair:_FillValue = -9725.85f ;
		Tsair:missing_value = -9725.85f ;
		Tsair:units = "K" ;
		Tsair:long_name = "Surface Air Temperature" ;
	float Ps(time, lat, lon) ;
		Ps:_FillValue = -999900.f ;
		Ps:missing_value = -999900.f ;
		Ps:units = "Pa" ;
		Ps:long_name = "Surface Pressure (Central Facility)" ;
	float AreaPs(time, lat, lon) ;
		AreaPs:_FillValue = -999900.f ;
		AreaPs:missing_value = -999900.f ;
		AreaPs:units = "Pa" ;
		AreaPs:long_name = "Area Mean Surface Pressure" ;
	float shflx(time, lat, lon) ;
		shflx:_FillValue = -9999.f ;
		shflx:missing_value = -9999.f ;
		shflx:units = "W/m2" ;
		shflx:long_name = "Surface Sensible Heat Flux" ;
	float lhflx(time, lat, lon) ;
		lhflx:_FillValue = -9999.f ;
		lhflx:missing_value = -9999.f ;
		lhflx:units = "W/m2" ;
		lhflx:long_name = "Surface Latent Heat Flux" ;
	float Prec(time, lat, lon) ;
		Prec:_FillValue = -0.0027775f ;
		Prec:missing_value = -0.0027775f ;
		Prec:units = "m/s" ;
		Prec:long_name = "Precipitation" ;
	float phis(lat, lon) ;
		phis:units = "m2/s2" ;
		phis:long_name = "Surface Geopotential" ;
	int bdate ;
		bdate:units = "yymmdd" ;
		bdate:long_name = "Base date as 6 digit integer" ;
	int tsec(time) ;
		tsec:units = "s" ;
		tsec:long_name = "Time in seconds after 0Z on base date" ;
	int Day(time) ;
		Day:units = " " ;
		Day:long_name = "Current calendar day" ;
	int Month(time) ;
		Month:units = " " ;
		Month:long_name = "Current month" ;
	int Year(time) ;
		Year:units = " " ;
		Year:long_name = "Current year" ;
}
