 CLDICE&IC                        kg/kg              30 I  Grid box averaged cloud ice amount                                                                                                                                                                                                                              
   10 NUMICE&IC                        kg/kg              30 I  Grid box averaged cloud ice number                                                                                                                                                                                                                              
   21 HACLDICE                         kg/kg/s            30 A  CLDICE horizontal advection tendency                                                                                                                                                                                                                            
   22 VACLDICE                         kg/kg/s            30 A  CLDICE vertical advection tendency                                                                                                                                                                                                                              
   23 TECLDICE                         kg/kg/s            30 A  CLDICE total tendency                                                                                                                                                                                                                                           
   24 TACLDICE                         kg/kg/s            30 A  CLDICE horz + vert + fixer tendency                                                                                                                                                                                                                             
   25 DFCLDICE                         kg/kg/s            30 A  CLDICE tendency due to slt fixer                                                                                                                                                                                                                                
   31 HANUMICE                         kg/kg/s            30 A  NUMICE horizontal advection tendency                                                                                                                                                                                                                            
   32 VANUMICE                         kg/kg/s            30 A  NUMICE vertical advection tendency                                                                                                                                                                                                                              
   33 TENUMICE                         kg/kg/s            30 A  NUMICE total tendency                                                                                                                                                                                                                                           
   34 TANUMICE                         kg/kg/s            30 A  NUMICE horz + vert + fixer tendency                                                                                                                                                                                                                             
   35 DFNUMICE                         kg/kg/s            30 A  NUMICE tendency due to slt fixer                                                                                                                                                                                                                                
   64 TMCLDICE                         kg/m2               1 A  CLDICE column burden                                                                                                                                                                                                                                            
   66 TMNUMICE                         kg/m2               1 A  NUMICE column burden                                                                                                                                                                                                                                            
  158 ICEFRAC                          fraction            1 A  Fraction of sfc area covered by sea-ice                                                                                                                                                                                                                         
  166 SNOWHICE                         m                   1 A  Water equivalent snow depth                                                                                                                                                                                                                                     
  176 PTECLDICE                        kg/kg/s            30 A  CLDICE total physics tendency                                                                                                                                                                                                                                   
  209 TSICE                            K                   1 A  Ice temperature                                                                                                                                                                                                                                                 
  215 TSICE&IC                         K                   1 I  Ice temperature                                                                                                                                                                                                                                                 
  216 SNOWHICE&IC                      m                   1 I  Water equivalent snow depth                                                                                                                                                                                                                                     
  217 ICEFRAC&IC                       fraction            1 I  Fraction of sfc area covered by sea-ice                                                                                                                                                                                                                         
  218 TSICERAD&IC                      K                   1 I  Radiatively equivalent ice temperature                                                                                                                                                                                                                          
  316 VDCLDICE                         kg/kg/s            30 A  Vertical diffusion of CLDICE                                                                                                                                                                                                                                    
  318 VDNUMICE                         kg/kg/s            30 A  Vertical diffusion of NUMICE                                                                                                                                                                                                                                    
  379 ICE_ICLD_VISTAU                  1                  30 A  Ice in-cloud extinction visible sw optical depth                                                                                                                                                                                                                
  469 CMFDICE                          kg/kg/s            30 A  Cloud ice tendency - shallow convection                                                                                                                                                                                                                         
  538 ZMDICE                           kg/kg/s            30 A  Cloud ice tendency - Zhang-McFarlane convection                                                                                                                                                                                                                 
  569 DPDLFICE                         kg/kg/s            30 A  Detrained ice from deep convection                                                                                                                                                                                                                              
  571 SHDLFICE                         kg/kg/s            30 A  Detrained ice from shallow convection                                                                                                                                                                                                                           
  578 MACPDICE                         kg/kg/s            30 A  CLDICE tendency - Revised macrophysics                                                                                                                                                                                                                          
  581 CLDICEADJ                        kg/kg/s            30 A  CLDICE adjustment tendency - Revised macrophysics                                                                                                                                                                                                               
  583 CLDICEDET                        kg/kg/s            30 A  Detrainment of conv cld ice into envrionment  - Revised macrophysics                                                                                                                                                                                            
  585 CLDICELIM                        kg/kg/s            30 A  CLDICE limiting tendency - Revised macrophysics                                                                                                                                                                                                                 
  590 CLDICESTR                        kg/kg              30 A  Stratiform CLDICE                                                                                                                                                                                                                                               
  592 CLDICECON                        kg/kg              30 A  Convective CLDICE                                                                                                                                                                                                                                               
  641 CLDICE                           kg/kg              30 A  Grid box averaged cloud ice amount                                                                                                                                                                                                                              
  642 SFCLDICE                         kg/m2/s             1 A  CLDICE surface flux                                                                                                                                                                                                                                             
  645 NUMICE                           kg/kg              30 A  Grid box averaged cloud ice number                                                                                                                                                                                                                              
  646 SFNUMICE                         kg/m2/s             1 A  NUMICE surface flux                                                                                                                                                                                                                                             
  648 CLDICEAP                         kg/kg              30 A  CLDICE after physics                                                                                                                                                                                                                                            
  650 CLDICEBP                         kg/kg              30 A  CLDICE before physics                                                                                                                                                                                                                                           
  652 CMEICE                           kg/kg/s            30 A  Rate of cond-evap of ice within the cloud                                                                                                                                                                                                                       
  658 FICE                             fraction           30 A  Fractional ice content within cloud                                                                                                                                                                                                                             
  703 MPDICE                           kg/kg/s            30 A  CLDICE tendency - Morrison microphysics                                                                                                                                                                                                                         
  711 ICECLDF                          fraction           30 A  Stratus ICE cloud fraction                                                                                                                                                                                                                                      
  718 EFFICE                           Micron             30 A  Prognostic ice effective radius                                                                                                                                                                                                                                 
  741 CV_REFFICE                       micron             30 A  convective cloud ice effective radius                                                                                                                                                                                                                           
    1 CLDICE&IC                        kg/kg              30 I  Grid box averaged cloud ice amount                                                                                                                                                                                                                              
    3 ICEFRAC&IC                       fraction            1 I  Fraction of sfc area covered by sea-ice                                                                                                                                                                                                                         
    4 NUMICE&IC                        kg/kg              30 I  Grid box averaged cloud ice number                                                                                                                                                                                                                              
    9 SNOWHICE&IC                      m                   1 I  Water equivalent snow depth                                                                                                                                                                                                                                     
   15 TSICE&IC                         K                   1 I  Ice temperature
